117981 702703 509
696505 204984 509
776848 297525 509
611741 6702 470
791759 142561 509
523033 387701 470
925890 736 525
711442 944583 525
147251 398530 443
129338 458850 449
265620 960247 525
471846 336164 449
290456 159665 443
961535 218325 525
53910 909712 525
263596 470034 449
257962 881202 525
212791 132959 383
541980 778128 509
863710 782737 525
245694 92364 443
79994 991051 525
719534 677471 504
272676 586725 470
501276 166788 449
748831 181447 509
875704 799189 525
711586 197852 509
26879 567207 470
191942 892116 525
212300 341496 443
260112 541855 470
545487 142145 470
906125 3659 525
46232 657419 509
616861 329951 470
228541 4409 386
789439 649503 504
339791 28969 443
917515 65517 525
419345 442307 418
934031 973728 507
935404 489921 525
205592 102546 383
214072 30166 383
221822 380058 443
664538 67242 509
702986 295309 509
436958 756852 509
601801 251613 470
293862 868061 525
805493 17690 509
706137 83839 509
996472 387541 525
553728 732542 509
626318 850928 525
801946 26528 509
998215 573307 525
298971 265485 407
798769 596614 509
305200 841047 525
899946 666956 525
252394 501621 449
748543 606622 509
277744 568234 470
384681 115606 443
891744 583395 525
386032 284185 441
224976 135820 386
20370 523429 470
959676 743412 525
382868 16789 443
138346 883569 525
845420 180590 525
706653 134363 509
714942 619621 509
965481 323009 525
342607 272501 389
902444 624699 525
297233 40766 443
851191 473913 525
304369 847592 525
643480 454313 509
430124 209247 449
201880 312808 443
142605 44857 375
854853 845385 419
797697 687786 504
670413 349631 509
470842 839300 525
82578 823867 509
924975 355167 525
690754 636324 442
229266 787048 509
978584 793579 525
299952 246499 407
914726 133973 525
933380 217960 525
899312 929598 476
490987 660371 509
754546 898827 525
912387 178054 525
108603 661138 509
421406 789834 509
438721 557533 470
438965 837601 509
828423 959211 525
76925 211610 383
561791 95439 470
116084 885169 525
170935 434156 449
706947 194005 509
484680 292151 449
982263 85691 525
679823 391173 509
743049 944472 525
151836 266185 443
406920 27062 443
716776 222334 509
515994 414693 470
553002 661706 509
381349 465971 449
93624 927624 525
25512 372691 443
669693 571958 509
47778 187868 383
934817 92847 525
203510 114096 383
218347 771174 509
487829 19288 449
767976 409406 509
539520 238585 470
654411 523220 509
437239 270839 449
583318 541427 452
244581 435368 449
665219 977785 525
934173 611557 525
414411 629983 509
465536 403608 449
760940 420631 509
864738 81454 525
188284 551942 470
813039 784743 468
669424 928510 525
453221 644799 509
724449 865188 525
488352 793984 509
403084 787195 509
628097 56136 509
196381 828827 509
774692 634123 504
840038 893907 445
366972 416200 449
455013 867443 525
249098 607943 470
850748 314109 525
227838 312 386
462502 959751 525
369325 462316 449
139904 156182 383
456729 790160 509
399050 598235 470
978249 99268 525
58943 399297 443
364274 67217 443
77135 580884 470
816900 942253 525
136251 382591 443
548476 508000 470
71916 96155 351
775400 34207 509
243132 839749 525
443904 928912 525
620193 305840 470
313587 865438 525
396390 377324 436
531720 209237 470
534127 820607 509
400657 141691 443
716731 569367 509
53332 196067 383
912422 525233 525
833430 977449 525
995710 599147 525
755289 466869 509
514990 845050 525
489303 313459 449
877978 620295 525
154734 173023 383
717768 807479 468
611705 715677 509
38428 556857 470
779127 63076 509
265920 459684 449
339920 311916 384
260362 841283 525
831297 592787 509
455755 768568 509
8980 489582 449
473941 184059 449
462602 671347 509
689295 634146 442
